$date
        2020-Jan-07 13:08:36
$end
$version
        Vivado v2017.4 (64-bit)
$end
$timescale
        1ps
$end
$scope module dut $end
$var reg 1 " \emulators[0].emulator/chip_output/process_cmd_in_i/sync_comb $end
$var reg 1 # \emulators[0].emulator/chip_output/process_cmd_in_i/wrreg_comb $end
$var reg 1 $ \emulators[0].emulator/chip_output/process_cmd_in_i/rdreg_comb $end
$var reg 1 % \emulators[0].emulator/chip_output/process_cmd_in_i/noop_comb $end
$var reg 9 & \emulators[0].emulator/chip_output/process_cmd_in_i/config_reg_adx [8:0] $end
$var reg 16 / \emulators[0].emulator/chip_output/process_cmd_in_i/config_reg_write [15:0] $end
$var reg 8 ? \emulators[0].emulator/chip_output/process_cmd_in_i/data_in [7:0] $end
$var reg 16 G \emulators[0].emulator/chip_output/process_cmd_in_i/data_out [15:0] $end
$var reg 1 W \emulators[0].emulator/chip_output/process_cmd_in_i/data_in_valid $end
$var reg 5 X \emulators[0].emulator/chip_output/process_cmd_in_i/dataword [4:0] $end
$var reg 4 ] \emulators[0].emulator/chip_output/process_cmd_in_i/state [3:0] $end
$var reg 5 a \emulators[0].emulator/chip_output/process_cmd_in_i/words_left [4:0] $end
$var reg 1 f \emulators[0].emulator/chip_output/process_cmd_in_i/pulse_comb $end
$var reg 16 g \emulators[0].emulator/chip_output/process_cmd_in_i/config_reg[114] [15:0] $end
$var reg 1 w _TRIGGER $end
$var reg 1 x _WINDOW $end
$var reg 1 y _GAP $end
$upscope $end
$enddefinitions $end
